<?xml version="1.0" encoding="utf-8"?>
<!-- Generator: Adobe Illustrator 21.0.2, SVG Export Plug-In . SVG Version: 6.00 Build 0)  -->
<svg version="1.1" xmlns="http://www.w3.org/2000/svg" xmlns:xlink="http://www.w3.org/1999/xlink" x="0px" y="0px"
	 viewBox="0 0 122.3 122.3" style="enable-background:new 0 0 122.3 122.3;" xml:space="preserve">
<style type="text/css">
	.st0{fill:#DC3545;}
</style>
<g id="background">
</g>
<g id="badges">
	<g>
		<circle class="st0" cx="61.2" cy="61.2" r="46.4"/>
		<path class="st0" d="M116.7,61.2l5.6-8.1l-7.5-6.3l3.4-9.2l-8.9-4.2l0.9-9.8l-9.7-1.7l-1.7-9.7l-9.8,0.9l-4.2-8.9l-9.2,3.4L69.2,0
			l-8.1,5.6L53.1,0l-6.3,7.5l-9.2-3.4l-4.2,8.9l-9.8-0.9l-1.7,9.7l-9.7,1.7l0.9,9.8l-8.9,4.2l3.4,9.2L0,53.1l5.6,8.1L0,69.2l7.5,6.3
			l-3.4,9.2l8.9,4.2l-0.9,9.8l9.7,1.7l1.7,9.7l9.8-0.9l4.2,8.9l9.2-3.4l6.3,7.5l8.1-5.6l8.1,5.6l6.3-7.5l9.2,3.4l4.2-8.9l9.8,0.9
			l1.7-9.7l9.7-1.7l-0.9-9.8l8.9-4.2l-3.4-9.2l7.5-6.3L116.7,61.2z M61.2,111.1c-27.6,0-49.9-22.4-49.9-49.9s22.4-49.9,49.9-49.9
			s49.9,22.4,49.9,49.9S88.7,111.1,61.2,111.1z"/>
	</g>
</g>
</svg>
